STATS 506 - Final Project
…
  # Previously
  across(a:b, mean, na.rm = TRUE)

  # Now
  across(a:b, \(x) mean(x, na.rm = TRUE))

`summarise()` has grouped output by 'YEAR'. You can override using the
`.groups` argument.

df

# A tibble: 269 × 25
# Groups:   YEAR [9]
    YEAR TEAM  WIN_PCT   FGM   FGA FG_PCT  FG3M  FG3A FG3_PCT   FTM   FTA FT_PCT
   <int> <chr>   <dbl> <dbl> <dbl>  <dbl> <dbl> <dbl>   <dbl> <dbl> <dbl>  <dbl>
 1  2014 76ers   0.232  37.9  87.2  0.437  7.04  22.5   0.313  16.6  23.4  0.707
 2  2014 Blaz…   0.659  39.1  87    0.450  9.39  25.3   0.371  19.1  23.5  0.815
 3  2014 Bucks   0.183  36    82.2  0.440  6.68  18.9   0.357  16.8  22.5  0.745
 4  2014 Bulls   0.585  34.7  80.2  0.433  6.20  17.8   0.347  18.1  23.3  0.781
 5  2014 Cava…   0.402  37.0  84.8  0.438  7.12  20     0.355  17.0  22.7  0.750
 6  2014 Celt…   0.305  36.5  83.9  0.437  7.01  21.1   0.327  16.2  20.8  0.785
 7  2014 Clip…   0.695  39.1  82.5  0.475  8.45  24.0   0.351  21.2  29.1  0.732
 8  2014 Griz…   0.610  38.1  82.0  0.465  4.94  14.0   0.352  15.1  20.3  0.736
 9  2014 Hawks   0.463  37.3  81.6  0.459  9.37  25.8   0.360  17.0  21.7  0.783
10  2014 Heat    0.659  38.3  76.5  0.502  8.11  22.3   0.364  17.5  23.0  0.763
# ℹ 259 more rows
# ℹ 13 more variables: OREB <dbl>, DREB <dbl>, REB <dbl>, AST <dbl>, TOV <dbl>,
#   STL <dbl>, BLK <dbl>, BLKA <dbl>, PF <dbl>, PFD <dbl>, PTS <dbl>,
#   PLUS_MINUS <dbl>, AVG <dbl>
…
# Calculate correlation for each team
team_correlations <- df %>%
  group_by(TEAM) %>%
  summarise(
    correlation = cor(WIN_PCT, AVG, use = "complete.obs", method = "pearson"),
    p_value = cor.test(WIN_PCT, AVG, method = "pearson")$p.value
  )

# Sort by strongest correlation
team_correlations_sorted <- team_correlations %>%
  arrange(desc(correlation))

print(team_correlations_sorted)

# A tibble: 30 × 3
   TEAM         correlation   p_value
   <chr>              <dbl>     <dbl>
 1 76ers              0.964 0.0000268
 2 Bucks              0.928 0.000305 
 3 Clippers           0.921 0.000424 
 4 Nuggets            0.904 0.000819 
 5 Blazers            0.855 0.00329  
 6 Pacers             0.845 0.00410  
 7 Timberwolves       0.832 0.00536  
 8 Rockets            0.809 0.00824  
 9 Thunder            0.799 0.00984  
10 Magic              0.747 0.0207   
# ℹ 20 more rows
…
